cs162.notML.typeInferencer.illTyped: tried to unify incompatible types
	at cs162.notML.typeInferencer.SemanticHelpers$.union(type-inferencer.scala:66)
	at cs162.notML.typeInferencer.SemanticHelpers$$anonfun$union$1.apply(type-inferencer.scala:63)
	at cs162.notML.typeInferencer.SemanticHelpers$$anonfun$union$1.apply(type-inferencer.scala:63)
	at scala.collection.LinearSeqOptimized$class.foreach(LinearSeqOptimized.scala:59)
	at scala.collection.immutable.List.foreach(List.scala:45)
	at cs162.notML.typeInferencer.SemanticHelpers$.union(type-inferencer.scala:63)
	at cs162.notML.typeInferencer.Infer$$anonfun$evalTo$1$2.apply(type-inferencer.scala:251)
	at cs162.notML.typeInferencer.Infer$$anonfun$evalTo$1$2.apply(type-inferencer.scala:251)
	at scala.collection.LinearSeqOptimized$class.foreach(LinearSeqOptimized.scala:59)
	at scala.collection.immutable.List.foreach(List.scala:45)
	at cs162.notML.typeInferencer.Infer$.evalTo$1(type-inferencer.scala:251)
	at cs162.notML.typeInferencer.Infer$.eval(type-inferencer.scala:267)
	at notML$.main(type-inferencer.scala:16)
	at notML.main(type-inferencer.scala)
	at sun.reflect.NativeMethodAccessorImpl.invoke0(Native Method)
	at sun.reflect.NativeMethodAccessorImpl.invoke(NativeMethodAccessorImpl.java:39)
	at sun.reflect.DelegatingMethodAccessorImpl.invoke(DelegatingMethodAccessorImpl.java:25)
	at java.lang.reflect.Method.invoke(Method.java:597)
	at scala.tools.nsc.util.ScalaClassLoader$$anonfun$run$1.apply(ScalaClassLoader.scala:78)
	at scala.tools.nsc.util.ScalaClassLoader$class.asContext(ScalaClassLoader.scala:24)
	at scala.tools.nsc.util.ScalaClassLoader$URLClassLoader.asContext(ScalaClassLoader.scala:88)
	at scala.tools.nsc.util.ScalaClassLoader$class.run(ScalaClassLoader.scala:78)
	at scala.tools.nsc.util.ScalaClassLoader$URLClassLoader.run(ScalaClassLoader.scala:101)
	at scala.tools.nsc.ObjectRunner$.run(ObjectRunner.scala:33)
	at scala.tools.nsc.ObjectRunner$.runAndCatch(ObjectRunner.scala:40)
	at scala.tools.nsc.MainGenericRunner.runTarget$1(MainGenericRunner.scala:56)
	at scala.tools.nsc.MainGenericRunner.process(MainGenericRunner.scala:80)
	at scala.tools.nsc.MainGenericRunner$.main(MainGenericRunner.scala:89)
	at scala.tools.nsc.MainGenericRunner.main(MainGenericRunner.scala)
